Chapter 17 Commuting time | HR Analytics in R
…
the_200 <- read_csv("https://hranalytics.netlify.com/data/200_staff_members.csv")

results = google_distance_all(
  the_200$Postcode,
  office,
  arrival_time = monday_9am,
  key = key
)

write_csv(results, file.path("data"), "commute_times.csv")

results

# A tibble: 800 x 5
   text    value status from     mode   
   <chr>   <dbl> <chr>  <chr>    <chr>  
 1 16 mins   963 OK     E15 1NS  driving
 2 57 mins  3396 OK     W12 8ET  driving
 3 41 mins  2469 OK     SW1V 1AP driving
 4 19 mins  1123 OK     SE1 2RE  driving
 5 37 mins  2206 OK     WC1A 2QS driving
 6 43 mins  2604 OK     N6 5JW   driving
 7 31 mins  1871 OK     EC1N 8PN driving
 8 36 mins  2158 OK     WC2B 6TE driving
 9 31 mins  1841 OK     N1 9AZ   driving
10 24 mins  1423 OK     WC2R 3LD driving
# … with 790 more rows
…
